{"name": "AcademicPeriod", "id": 829962033, "type":"lookup", "title": "Ακαδημαϊκές περίοδοι",
    "hidden": false,
    "sealed": false,
    "abstract": false,
    "caching":"always",
    "implements":"Enumeration",
    "category":"lookup",
    "version": "1.1",
    "fields": [
        {
            "name": "id",
            "title": "Id",
            "type": "Counter",
            "nullable": false,
            "primary": true
        }
    ],
    "privileges":[
        { "mask":1, "type":"global", "account":"*" },
        { "mask":15, "type":"global" }
    ],
    "constraints": [
        {
            "type": "unique",
            "description": "Alternate name must be unique across different records",
            "fields": [ "alternateName" ]
        },
        {
            "type": "unique",
            "description": "Name must be unique across different records",
            "fields": [ "name" ]
        }
    ],
    "seed":[
        {
            "alternateName": "winter",
            "name": "Χειμερινό",
            "identifier": 1
        },
        {
            "alternateName": "summer",
            "name": "Εαρινό",
            "identifier": 2
        }
    ],
    "eventListeners":[
        { "name":"Lookup Cache Listener", "type":"./listeners/lookup-cache-listener.js" }
    ]
}
