{
    "@id":"https://themost.io/schemas/Attachment",
    "name": "Attachment",
    "title": "Attachments",
    "hidden": true,
    "sealed": false,
    "abstract": false,
    "implements":"Thing",
    "version": "1.5",
    "fields": [
        {
            "@id":"https://themost.io/schemas/id",
            "name": "id",
            "title": "Id",
            "type": "Counter",
            "nullable": false,
            "primary": true
        },
        {
            "@id":"http://schema.org/additionalType",
            "name": "additionalType",
            "type": "Text",
            "value":"javascript:return this.model.name;"
        },
        {
            "name": "alternateName",
            "description": "An alias for the item.",
            "type": "Text",
            "nullable": false,
            "value": "javascript:return this.chars(12);"
        },
        {
            "@id":"https://themost.io/schemas/contentType",
            "name": "contentType",
            "title": "Content Type",
            "description": "A content type for this item.",
            "type": "Text",
            "nullable": false
        },
        {
            "@id":"https://themost.io/schemas/datePublished",
            "name": "datePublished",
            "title": "Date Published",
            "description": "Date of first broadcast/publication.",
            "type": "DateTime"
        },
        {
            "@id":"https://themost.io/schemas/published",
            "name": "published",
            "title": "Published",
            "description": "Indicates whether the item is published or not.",
            "type": "Boolean",
            "nullable": false,
            "value": "javascript:return false;"
        },
        {
            "@id":"https://themost.io/schemas/keywords",
            "name": "keywords",
            "title": "Keywords",
            "description": "The keywords/tags used to describe this content.",
            "type": "Text"
        },
        {
            "@id":"https://themost.io/schemas/thumbnail",
            "name": "thumbnail",
            "title": "Thumbnail Url",
            "description": "A thumbnail image relevant to the item.",
            "type": "URL"
        },
        {
            "@id":"https://themost.io/schemas/version",
            "name": "version",
            "title": "Version",
            "description": "The version of this item.",
            "type": "Text"
        },
        {
            "@id":"https://themost.io/schemas/attachmentType",
            "name": "attachmentType",
            "title": "Attachment type",
            "description": "The attachment type",
            "type": "AttachmentType"
        },
        {
            "@id": "http://schema.org/owner",
            "name": "owner",
            "title": "Owner",
            "description": "The owner of the action e.g. a user who request something.",
            "type": "User",
            "value":"javascript:return this.user();"
        }
    ],
    "privileges": [
        {
            "mask": 15,
            "type": "global"
        },
        {
            "mask": 15,
            "type": "global",
            "account": "Administrators"
        },
        {
            "mask": 1,
            "type": "self",
            "filter": "createdBy eq me() or modifiedBy eq me() or owner eq me()"
        }
    ]
}