{
  "name": "CourseExamInstructor",
  "title": "Σύνδεση εξεταστή με εξέταση μαθήματος",
  "hidden": false,
  "sealed": false,
  "version": "2.0",
  "fields": [
    {
      "name": "id",
      "title": "Κωδικός",
      "description": "Ο κωδικός σύνδεσης εξεταστή - εξέτασης",
      "type": "Text",
      "nullable": false,
      "size": 36,
      "primary": true,
      "readonly": true,
      "value": "javascript:return this.newGuid();"
    },
    {
      "name": "courseExam",
      "title": "Εξέταση μαθήματος",
      "description": "Η εξέταση του μαθήματος",
      "type": "CourseExam",
      "nullable": false
    },
    {
      "name": "instructor",
      "title": "Εξεταστής",
      "description": "Ο εξεταστής του μαθήματος για τη συγκεκριμένη εξέταση",
      "type": "Instructor",
      "nullable": false
    },
    {
      "name": "dateModified",
      "title": "Ημερομηνία τροποποίησης",
      "description": "Η ημερομηνία τροποποίησης.",
      "type": "DateTime",
      "nullable": false
    }
  ],
  "privileges": [
    {
      "mask": 1,
      "type": "global",
      "account": "Administrators"
    },
    {
      "mask": 1,
      "type": "global",
      "account": "Instructors"
    },
    {
      "mask": 15,
      "type": "global"
    }
  ]
}