{"name": "Gender", "id": 829962033, "type":"lookup", "title": "Φύλο",
    "hidden": false,
    "sealed": false,
    "abstract": false,
    "caching":"always",
    "implements":"Enumeration",
    "category":"lookup",
    "version": "1.0",
    "fields": [
        {
            "name": "id",
            "title": "Id",
            "type": "Counter",
            "nullable": false,
            "primary": true
        },
        {
            "name": "identifier",
            "title": "identifier",
            "description": "The identifier property represents any kind of identifier.",
            "type": "Text"
        }
    ],
    "privileges":[
        { "mask":1, "type":"global", "account":"*" },
        { "mask":15, "type":"global" }
    ],
    "constraints": [
        {
            "type": "unique",
            "description": "Alternate name must be unique across different records",
            "fields": [ "alternateName" ]
        },
        {
            "type": "unique",
            "description": "Name must be unique across different records",
            "fields": [ "name" ]
        }
    ],
    "seed":[
        {
            "alternateName": "male",
            "name": "Άρρεν",
            "identifier": "Α"
        },
        {
            "alternateName": "female",
            "name": "Θήλυ",
            "identifier": "Θ"
        },
        {
            "alternateName": "other",
            "name": "Άλλο"
        }
    ],
    "eventListeners":[
        { "name":"Lookup Cache Listener", "type":"./listeners/lookup-cache-listener.js" }
    ]
}
