{
    "$schema": "https://themost-framework.github.io/themost/models/2018/2/schema.json",
    "@id": "https://universis.io/entities/RegistrationPeriodInfo",
    "name": "RegistrationPeriodInfo",
    "description": "Structured values are used when the value of a property has a more complex structure than simply being a textual value or a reference to another thing.",
    "title": "RegistrationPeriodInfo",
    "abstract": false,
    "sealed": false,
    "hidden": true,
    "inherits": "StructuredValue",
    "version": "1.0",
    "fields": [
        {
            "@id": "https://universis.io/properties/registrationPeriodEnd",
            "name": "registrationPeriodStart",
            "description": "Defines the date and time when a registration period starts",
            "type": "Date",
            "nullable": false
        },
        {
            "@id": "https://universis.io/properties/registrationPeriodEnd",
            "name": "registrationPeriodEnd",
            "description": "Defines the date and time when a registration period ends",
            "type": "Date",
            "nullable": false
        },
        {
            "@id": "https://universis.io/properties/academicYear",
            "name": "academicYear",
            "title": "Academic Year",
            "description": "Defines the academic year for this registration period information",
            "type": "AcademicYear",
            "nullable": false
        },
        {
            "@id": "https://universis.io/properties/academicPeriod",
            "name": "academicPeriod",
            "title": "Academic Period",
            "description": "Defines the academic period for this registration period information",
            "type": "AcademicPeriod",
            "nullable": false
        }
    ],
    "privileges": [
        {
            "mask": 1,
            "type": "global",
            "account": "*"
        },
        {
            "mask": 15,
            "type": "global",
            "account": "Administrators"
        }
    ]
}
