{
    "$schema": "https://themost-framework.github.io/themost/models/2018/2/schema.json",
    "name": "UpdateSpecialtyAction",
    "title": "UpdateSpecialtyAction",
    "hidden": false,
    "sealed": false,
    "version": "1.5",
    "inherits": "UpdateAction",
    "fields": [
        {
            "@id": "http://schema.org/object",
            "name": "object",
            "title": "Student",
            "description": "A student associated with registration action",
            "type": "Student",
            "nullable": false,
            "expandable": true,
            "editable": false,
            "value": "javascript:return this.student();"
        },
        {
            "@id": "https://universis.io/properties/currentSpecialty",
            "name": "currentSpecialty",
            "title": "Current Study Program Specialty",
            "description": "Current study program specialty",
            "readonly": true,
            "value": "javascript:return this.model.context.model('Student').convert(this.target.object).getSpecialty();",
            "type": "StudyProgramSpecialty",
            "size": 36
        },
        {
            "@id": "https://universis.io/properties/specialty",
            "name": "specialty",
            "title": "Study Program Specialty",
            "description": "Study Program Specialty",
            "nullable": false,
            "type": "StudyProgramSpecialty",
            "size": 36
        },
        {
            "@id": "https://universis.io/properties/registrationYear",
            "name": "academicYear",
            "title": "Academic Year",
            "description": "The academic year of this student action",
            "type": "AcademicYear",
            "nullable": false,
            "expandable": true,
            "value": "javascript:return this.currentYear();"
        },
        {
            "@id": "https://universis.io/properties/registrationPeriod",
            "name": "academicPeriod",
            "title": "Academic Period",
            "description": "The academic period of this student action",
            "type": "AcademicPeriod",
            "nullable": false,
            "expandable": true,
            "value": "javascript:return this.currentPeriod();"
        }
    ],
    "eventListeners": [
        {
            "type": "@themost/data/previous-state-listener"
        },
        {
            "type": "./listeners/auto-complete-update-specialty-action-listener"
        },
        {
            "type": "./listeners/after-complete-update-specialty-action-listener"
        }
    ],
    "privileges": [
        {
            "mask": 15,
            "type": "global"
        },
        {
            "mask": 15,
            "type": "global",
            "account": "Administrators"
        },
        {
            "mask": 1,
            "type": "self",
            "filter": "owner eq me()",
            "account": "Students"
        },
        {
            "mask": 2,
            "type": "self",
            "filter": "object/user eq me()",
            "account": "Students"
        }
    ]
}
